…
#### Construct a dataset that is limited to Excellent responses, and contains, year, state, and a variable that averages the data\_value across locations within a state.

``` r
new_brfss_df =
brfss_df %>% 
  filter(response == "Excellent") %>% 
  rename(state = locationabbr) %>% 
  group_by(state, year) %>% 
  summarize(mean_value = mean(data_value)) %>% 
  select(year, state, mean_value)

new_brfss_df
```

    ## # A tibble: 443 x 3
    ## # Groups:   state [51]
    ##     year state mean_value
    ##    <int> <chr>      <dbl>
    ##  1  2002 AK          27.9
    ##  2  2003 AK          24.8
    ##  3  2004 AK          23.0
    ##  4  2005 AK          23.8
    ##  5  2007 AK          23.5
    ##  6  2008 AK          20.6
    ##  7  2009 AK          23.2
    ##  8  2002 AL          18.5
    ##  9  2003 AL          19.5
    ## 10  2004 AL          20  
    ## # … with 433 more rows
…
